[
    {
        "rows": [
            [
                {
                    "name": "name"
                },
                {
                    "name": "account"
                }
            ],
            [
                {
                    "name": "stage"
                },
                {
                    "name": "amount"
                }
            ],
            [
                {
                    "name": "probability"
                },
                {
                    "name": "closeDate"
                }
            ],
            [
                {
                    "name": "contacts"
                },
                {
                    "name": "leadSource"
                }
            ],
            [
                {
                    "name": "fup"
                },
                {
                    "name": "fob"
                }
            ],
            [
                {
                    "name": "usuariosAsignados"
                },
                false
            ],
            [
                {
                    "name": "useGeneralIva"
                },
                false,
                false
            ],
            [
                {
                    "name": "iva"
                },
                {
                    "name": "deliveryTime"
                }
            ],
            [
                {
                    "name": "description"
                }
            ]
        ],
        "style": "danger",
        "dynamicLogicVisible": null,
        "customLabel": "Vista"
    },
    {
        "rows": [
            [
                {
                    "name": "generalTerms"
                },
                false,
                false
            ],
            [
                {
                    "name": "termsAdvancePercent"
                },
                {
                    "name": "termsAdvanceDays"
                },
                false
            ],
            [
                {
                    "name": "termsDeliveryPercent"
                },
                {
                    "name": "termsDeliveryDays"
                },
                false
            ],
            [
                {
                    "name": "termsInstalationPercent"
                },
                {
                    "name": "termsInstalationDays"
                },
                false
            ],
            [
                {
                    "name": "partialDeliveries"
                },
                {
                    "name": "deliveryDays"
                },
                false
            ]
        ],
        "style": "primary",
        "dynamicLogicVisible": null,
        "customLabel": "Condiciones de pago"
    }
]