[
    {
        "name": "name",
        "link": true
    },
    {
        "name": "account",
        "width": 22
    },
    {
        "name": "stage",
        "width": 20
    },
    {
        "name": "createdAt",
        "width": 20
    }
]