{
    "fields": {
        "fromEmailAddress": {
            "required": false,
            "audited": false,
            "readOnly": false,
            "tooltip": false
        },
        "parent": {
            "entityList": [
                "Account",
                "Lead",
                "Contact",
                "Opportunity",
                "Case"
            ]
        }
    },
    "collection": {
        "fullTextSearch": true
    }
}